…
Read data

This sample post analyzes Covid-19 data.

covid_ny <- read_csv("https://raw.githubusercontent.com/nytimes/covid-19-data/master/us-states.csv") %>%
  filter(state == "New York")

# print the raw tibble (data.frame)
covid_ny

## # A tibble: 430 x 5
##    date       state    fips  cases deaths
##    <date>     <chr>    <chr> <dbl>  <dbl>
##  1 2020-03-01 New York 36        1      0
##  2 2020-03-02 New York 36        1      0
##  3 2020-03-03 New York 36        2      0
##  4 2020-03-04 New York 36       11      0
##  5 2020-03-05 New York 36       22      0
##  6 2020-03-06 New York 36       44      0
##  7 2020-03-07 New York 36       89      0
##  8 2020-03-08 New York 36      106      0
##  9 2020-03-09 New York 36      142      0
## 10 2020-03-10 New York 36      173      0
## # … with 420 more rows
…
